{
  "/login":"扫码页",
  "/waiting":"App选择文件",
  "/print":"打印页",
  "/success":"打印成功",
  "/help":"帮助页",
  "/guidein":"插入U盘引导页",
  "/guideout":"插入U盘引导页",
  "/pay":"扫码支付页",
  "/printerlist":"附近设备页",
  "/error":"故障页",
  "/usbdrive": "U盘选择设置页",
  "/": "首页"
}
